Text Mining - Exploration
…
---

```r
library(tidyverse)
library(tidytext)
text <- c("Bryant University: A private university in Smithfield, Rhode Island! It has two colleges, the College of Arts and Sciences and the College of Business, and is accredited by the New England Commission of Higher Education")

text_df <- tibble(text = text)

text_df %>%
    unnest_tokens(word, text)
```

```
## # A tibble: 35 × 1
##    word      
##    <chr>     
##  1 bryant    
##  2 university
##  3 a         
##  4 private   
##  5 university
##  6 in        
##  7 smithfield
##  8 rhode     
##  9 island    
## 10 it        
## # ℹ 25 more rows
```
…
