Analyzing frequency: tf-idf
…
- The more often the words show up the more important it is

- We could use `Term Frequency`   

- TF (Term Frequency) = (Number of times term `t` appears in a document) / (Total number of terms in the document).

- Please notice that the same word/term may have different `tf` in a different document

- For example: the word `love` in document 1 may have different `tf` when compared with that of document 2. 

---
# Term frequency (tf)

```
## # A tibble: 117 × 5
## # Groups:   title [5]
##    title                    word        n total term_frequency
##    <chr>                    <chr>   <int> <int>          <dbl>
##  1 Batman: The Killing Joke to          3    28         0.107 
##  2 Spider-Man 3             the         3    23         0.130 
##  3 Superman Returns         to          3    28         0.107 
##  4 Batman: The Killing Joke a           2    28         0.0714
##  5 Batman: The Killing Joke the         2    28         0.0714
##  6 Marvel Anime: Wolverine  is          2    28         0.0714
##  7 Spider-Man 3             of          2    23         0.0870
##  8 Batman: The Killing Joke attempt     1    28         0.0357
##  9 Batman: The Killing Joke bad         1    28         0.0357
## 10 Batman: The Killing Joke batman      1    28         0.0357
## # ℹ 107 more rows
```
…
- The `idf` of a term is a constant throughout the document.  For example the word `love` in Document 1 should have the same `idf` as the word `love` in Document 2. 

---
# tf-idf

$$\text{tf-idf }(t) = \text{tf }(t) \cdot \text{tf }(t) $$

- The `tf-idf` of the same term may have different values in different documents.  For example the word `love` in Document 1 may have a different value `tf-idf` compared to the word `love` in Document 2. 

---
# tf-idf

```
## # A tibble: 117 × 7
##    title                    word        n total     tf   idf tf_idf
##    <chr>                    <chr>   <int> <int>  <dbl> <dbl>  <dbl>
##  1 Batman: The Killing Joke to          3    28 0.107  0.223 0.0239
##  2 Spider-Man 3             the         3    23 0.130  0.223 0.0291
##  3 Superman Returns         to          3    28 0.107  0.223 0.0239
##  4 Batman: The Killing Joke a           2    28 0.0714 0.223 0.0159
##  5 Batman: The Killing Joke the         2    28 0.0714 0.223 0.0159
##  6 Marvel Anime: Wolverine  is          2    28 0.0714 0.916 0.0654
##  7 Spider-Man 3             of          2    23 0.0870 0.916 0.0797
##  8 Batman: The Killing Joke attempt     1    28 0.0357 1.61  0.0575
##  9 Batman: The Killing Joke bad         1    28 0.0357 1.61  0.0575
## 10 Batman: The Killing Joke batman      1    28 0.0357 1.61  0.0575
## # ℹ 107 more rows
```
…
