Analyzing frequency: tf-idf
…
---
# Plot tf-idf

```
## # A tibble: 8,605 × 7
##    document                                word      n total     tf   idf tf_idf
##    <chr>                                   <chr> <int> <int>  <dbl> <dbl>  <dbl>
##  1 Amazon Kindle Paperwhite - eBook reade… kind…  1717 52533 0.0327     0      0
##  2 All-New Fire HD 8 Tablet, 8 HD Display… tabl…  1342 41031 0.0327     0      0
##  3 Amazon Kindle Paperwhite - eBook reade… read   1169 52533 0.0223     0      0
##  4 All-New Fire HD 8 Tablet, 8 HD Display… great  1067 41031 0.0260     0      0
##  5 Amazon Kindle Paperwhite - eBook reade… read…   950 52533 0.0181     0      0
##  6 Amazon Kindle Paperwhite - eBook reade… great   947 52533 0.0180     0      0
##  7 Amazon Kindle Paperwhite - eBook reade… easy    925 52533 0.0176     0      0
##  8 Amazon Kindle Paperwhite - eBook reade… books   778 52533 0.0148     0      0
##  9 Amazon Kindle Paperwhite - eBook reade… love    772 52533 0.0147     0      0
## 10 Amazon Kindle Paperwhite - eBook reade… light   686 52533 0.0131     0      0
## # ℹ 8,595 more rows
```
…
