Topic Modeling
…
lda_topics <- lda_out %>%
  tidy(matrix = "beta") 
```

---

- List of all words in topic 1 associated with their probabilities

```r
lda_topics %>% 
  filter(topic==1)
```

```
## # A tibble: 477 × 3
##    topic term               beta
##    <int> <chr>             <dbl>
##  1     1 data           0.000128
##  2     1 statisticians  0.000128
##  3     1 mathematicians 0.000128
##  4     1 analyze        0.000128
##  5     1 help           0.000128
##  6     1 may            0.000128
##  7     1 problems       0.000128
##  8     1 work           0.000128
##  9     1 team           0.0168  
## 10     1 design         0.000128
## # ℹ 467 more rows
```

---

- List of all words in topic 2 associated with their probabilities

```r
lda_topics %>% 
  filter(topic==2)
```

```
## # A tibble: 477 × 3
##    topic term              beta
##    <int> <chr>            <dbl>
##  1     2 data           0.0571 
##  2     2 statisticians  0.0457 
##  3     2 mathematicians 0.0400 
##  4     2 analyze        0.0201 
##  5     2 help           0.0172 
##  6     2 may            0.0172 
##  7     2 problems       0.0172 
##  8     2 work           0.0172 
##  9     2 team           0.00157
## 10     2 design         0.0144 
## # ℹ 467 more rows
```
…
