Visualizing Text Data
…
stop_word2 = tibble(word = c(letters, LETTERS, "oh", 'just'))

# list of tokens/words
df %>%
  unnest_tokens(input = texts, output = word) %>% 
  anti_join(get_stopwords()) %>% 
  anti_join(stop_word2)

# A tibble: 114,576 × 1
   word    
   <chr>   
 1 future  
 2 elite   
 3 inhabit 
 4 island  
 5 paradise
 6 far     
 7 crowded 
 8 slums   
 9 get     
10 one     
# ℹ 114,566 more rows

1.2 Count the tokens frequency

# Count word frequency
df %>%
  unnest_tokens(input = texts, output = word) %>% 
  anti_join(get_stopwords()) %>% 
  anti_join(stop_word2)%>% 
  count(word, sort = TRUE)

# A tibble: 18,831 × 2
   word        n
   <chr>   <int>
 1 life      746
 2 young     655
 3 new       613
 4 family    497
 5 man       464
 6 world     453
 7 love      447
 8 two       443
 9 woman     402
10 friends   383
# ℹ 18,821 more rows
…
