Classification Model using Text Data
…
# Convert text data to numeric variables
a <- recipe(target ~.,
       data = df) %>% 
  step_tokenize(texts) %>% 
  step_tokenfilter(texts, max_tokens = 100) %>% 
  step_tfidf(texts) %>% 
  step_normalize(all_numeric_predictors()) %>% 
  step_dummy(all_nominal_predictors()) %>% 
  step_smote(target) %>% 
  prep()
df <- juice(a)
df

# A tibble: 10,754 × 101
   tfidf_texts_a tfidf_texts_about tfidf_texts_after tfidf_texts_against
           <dbl>             <dbl>             <dbl>               <dbl>
 1       -0.344             -0.193            -0.339              -0.147
 2       -0.270             -0.193             2.68               -0.147
 3        0.0626            -0.193            -0.339              -0.147
 4        0.617             -0.193            -0.339              -0.147
 5       -0.0728            -0.193            -0.339              -0.147
 6        2.09              -0.193            -0.339              -0.147
 7        0.237             -0.193             2.03               -0.147
 8       -0.692             -0.193             1.24               -0.147
 9        1.01              -0.193            -0.339              -0.147
10        0.344             -0.193            -0.339              -0.147
# ℹ 10,744 more rows
# ℹ 97 more variables: tfidf_texts_all <dbl>, tfidf_texts_an <dbl>,
#   tfidf_texts_and <dbl>, tfidf_texts_are <dbl>, tfidf_texts_as <dbl>,
#   tfidf_texts_at <dbl>, tfidf_texts_back <dbl>, tfidf_texts_be <dbl>,
#   tfidf_texts_becomes <dbl>, tfidf_texts_between <dbl>,
#   tfidf_texts_but <dbl>, tfidf_texts_by <dbl>, tfidf_texts_city <dbl>,
#   tfidf_texts_comedy <dbl>, tfidf_texts_daughter <dbl>, …
…
