Text Mining - Bigrams
…
In this notebook, we will use the pairs of adjacent words to analyze a text dataset. The dataset contains reviews from Amazon.

We only study the reviews for the item with most number of reviews. First, import the dataset and find out the item with the most number of reviews.

library(tidyverse)
library(ggplot2)
library(tidytext)
df <- read_csv('amazon_reviews.csv')

df %>% 
  group_by(name) %>% 
  count(sort = TRUE)

# A tibble: 49 × 2
# Groups:   name [49]
   name                                                                        n
   <chr>                                                                   <int>
 1 "Fire Tablet, 7 Display, Wi-Fi, 8 GB - Includes Special Offers, Magent… 10966
 2  <NA>                                                                    6760
 3 "Echo (White),,,\r\nEcho (White),,,"                                     3309
 4 "Amazon Kindle Paperwhite - eBook reader - 4 GB - 6 monochrome Paperwh…  3176
 5 "All-New Fire HD 8 Tablet, 8 HD Display, Wi-Fi, 16 GB - Includes Speci…  2814
 6 "Amazon Fire Tv,,,\r\nAmazon Fire Tv,,,"                                 2527
 7 "Fire Kids Edition Tablet, 7 Display, Wi-Fi, 16 GB, Green Kid-Proof Ca…  1685
 8 "Brand New Amazon Kindle Fire 16gb 7 Ips Display Tablet Wifi 16 Gb Blu…  1038
 9 "Kindle Voyage E-reader, 6 High-Resolution Display (300 ppi) with Adap…   580
10 "Fire Tablet, 7 Display, Wi-Fi, 8 GB - Includes Special Offers, Black"    372
# ℹ 39 more rows
…
df = df %>% 
  select(name, reviews.text) %>% 
  filter(name=='Fire Tablet, 7 Display, Wi-Fi, 8 GB - Includes Special Offers, Magenta') %>% 
  rename(texts = reviews.text)

Create a list of pairs of words

df_bigrams <- df %>%
  unnest_tokens(input = texts, output = bigram, token = "ngrams", n = 2) %>% 
  filter(!is.na(bigram))

df_bigrams %>%
  count(bigram, sort = TRUE)

# A tibble: 75,462 × 2
   bigram          n
   <chr>       <int>
 1 for my       2431
 2 for the      1659
 3 to use       1434
 4 easy to      1413
 5 this tablet  1360
 6 the price    1355
 7 tablet for   1296
 8 it is        1166
 9 i bought     1072
10 a great      1068
# ℹ 75,452 more rows
…
bigrams_separated <- df_bigrams %>%
    separate(bigram, c("word1", "word2"), sep = " ")

bigrams_filtered <- bigrams_separated %>%
    filter(!word1 %in% stop_words$word) %>%
    filter(!word1 %in% stop_words$word) %>%
    filter(!word1 %in% stop_words2$word) %>%
    filter(!word2 %in% stop_words2$word)

# new bigram counts:
bigram_counts <- bigrams_filtered %>% 
    count(word1, word2, sort = TRUE)
bigram_counts

# A tibble: 37,691 × 3
   word1     word2     n
   <chr>     <chr> <int>
 1 easy      to     1413
 2 tablet    for    1296
 3 bought    this    920
 4 loves     it      798
 5 love      it      562
 6 tablet    is      516
 7 kindle    fire    463
 8 gift      for     396
 9 games     and     298
10 purchased this    292
# ℹ 37,681 more rows
…
Context Sentiment Analysis

Words preceded by NOT

bigrams_separated %>%
  filter(word1 == "not") %>%
  count(word1, word2, sort = TRUE)

# A tibble: 398 × 3
   word1 word2     n
   <chr> <chr> <int>
 1 not   a       129
 2 not   the      91
 3 not   as       90
 4 not   have     72
 5 not   be       45
 6 not   too      41
 7 not   very     39
 8 not   an       37
 9 not   so       36
10 not   to       35
# ℹ 388 more rows

AFINN <- get_sentiments("afinn")

not_words <- bigrams_separated %>%
  filter(word1 == "not") %>%
  inner_join(AFINN, by = c(word2 = "word")) %>%
  count(word2, value, sort = TRUE)

not_words

# A tibble: 80 × 3
   word2      value     n
   <chr>      <dbl> <int>
 1 bad           -3    25
 2 like           2    25
 3 great          3    22
 4 recommend      2    18
 5 good           3    16
 6 want           1    13
 7 super          3     9
 8 worth          2     8
 9 allow          1     6
10 disappoint    -2     6
# ℹ 70 more rows
…
