Text Mining - Correlation
…
Dataset

We only study the reviews for the item with most number of reviews. First, import the dataset and find out the item with the most number of reviews.

library(tidyverse)
library(ggplot2)
library(tidytext)
df <- read_csv('amazon_reviews.csv')

df %>% 
  group_by(name) %>% 
  count(sort = TRUE)

# A tibble: 49 × 2
# Groups:   name [49]
   name                                                                        n
   <chr>                                                                   <int>
 1 "Fire Tablet, 7 Display, Wi-Fi, 8 GB - Includes Special Offers, Magent… 10966
 2  <NA>                                                                    6760
 3 "Echo (White),,,\r\nEcho (White),,,"                                     3309
 4 "Amazon Kindle Paperwhite - eBook reader - 4 GB - 6 monochrome Paperwh…  3176
 5 "All-New Fire HD 8 Tablet, 8 HD Display, Wi-Fi, 16 GB - Includes Speci…  2814
 6 "Amazon Fire Tv,,,\r\nAmazon Fire Tv,,,"                                 2527
 7 "Fire Kids Edition Tablet, 7 Display, Wi-Fi, 16 GB, Green Kid-Proof Ca…  1685
 8 "Brand New Amazon Kindle Fire 16gb 7 Ips Display Tablet Wifi 16 Gb Blu…  1038
 9 "Kindle Voyage E-reader, 6 High-Resolution Display (300 ppi) with Adap…   580
10 "Fire Tablet, 7 Display, Wi-Fi, 8 GB - Includes Special Offers, Black"    372
# ℹ 39 more rows
…
df_section_words = df %>% 
  mutate(section = c(1:nrow(df))) %>% 
  unnest_tokens(output = word, input = texts) %>% 
  filter(!word %in% stop_words$word)

library(widyr)

# count words co-occuring within sections
word_pairs <- df_section_words %>%
  pairwise_count(word, section, sort = TRUE)

word_pairs

# A tibble: 834,218 × 3
   item1  item2      n
   <chr>  <chr>  <dbl>
 1 price  tablet  1229
 2 tablet price   1229
 3 bought tablet   730
 4 tablet bought   730
 5 tablet amazon   719
 6 amazon tablet   719
 7 tablet easy     611
 8 easy   tablet   611
 9 fire   tablet   563
10 tablet fire     563
# ℹ 834,208 more rows
…
1 is a perfect positive relationship: \(X\) appears indicates \(Y\) appears

-1 is a perfect negative relationship: \(X\) appears indicates \(Y\) does not appear

Top correlated Pairs

word_cors <- df_section_words %>%
  group_by(word) %>%
  filter(n() >= 20) %>%
  pairwise_cor(item = word, feature = section, sort = TRUE)

word_cors

# A tibble: 511,940 × 3
   item1    item2    correlation
   <chr>    <chr>          <dbl>
 1 whistles bells          1    
 2 bells    whistles       1    
 3 fi       wi             1    
 4 wi       fi             1    
 5 friday   black          0.947
 6 black    friday         0.947
 7 buck     bang           0.836
 8 bang     buck           0.836
 9 level    entry          0.803
10 entry    level          0.803
# ℹ 511,930 more rows
…
