Text Mining - tf-idf
…
Define Documents.

We could define a document is a review and therefore a document is also a row in a dataset. However, the data has more than 30,000 rows or documents. This makes the analysis of each documents rather tedious.

To make the number of documents in the data fewer, we will group all the reviews of the same item together and define it as a document. For simplicity, we choose to analyze the two items with more number of reviews. First, we count the number of reviews for each item.

df %>% 
  group_by(name) %>% 
  count(sort = TRUE)

# A tibble: 49 × 2
# Groups:   name [49]
   name                                                                        n
   <chr>                                                                   <int>
 1 "Fire Tablet, 7 Display, Wi-Fi, 8 GB - Includes Special Offers, Magent… 10966
 2  <NA>                                                                    6760
 3 "Echo (White),,,\r\nEcho (White),,,"                                     3309
 4 "Amazon Kindle Paperwhite - eBook reader - 4 GB - 6 monochrome Paperwh…  3176
 5 "All-New Fire HD 8 Tablet, 8 HD Display, Wi-Fi, 16 GB - Includes Speci…  2814
 6 "Amazon Fire Tv,,,\r\nAmazon Fire Tv,,,"                                 2527
 7 "Fire Kids Edition Tablet, 7 Display, Wi-Fi, 16 GB, Green Kid-Proof Ca…  1685
 8 "Brand New Amazon Kindle Fire 16gb 7 Ips Display Tablet Wifi 16 Gb Blu…  1038
 9 "Kindle Voyage E-reader, 6 High-Resolution Display (300 ppi) with Adap…   580
10 "Fire Tablet, 7 Display, Wi-Fi, 8 GB - Includes Special Offers, Black"    372
# ℹ 39 more rows
…
Plot the tf-idf for each documents

df_tf_idf <- df_words %>%
  bind_tf_idf(word, document, n)

df_tf_idf

# A tibble: 8,605 × 7
   document                                word      n total     tf   idf tf_idf
   <chr>                                   <chr> <int> <int>  <dbl> <dbl>  <dbl>
 1 Amazon Kindle Paperwhite - eBook reade… kind…  1717 52533 0.0327     0      0
 2 All-New Fire HD 8 Tablet, 8 HD Display… tabl…  1342 41031 0.0327     0      0
 3 Amazon Kindle Paperwhite - eBook reade… read   1169 52533 0.0223     0      0
 4 All-New Fire HD 8 Tablet, 8 HD Display… great  1067 41031 0.0260     0      0
 5 Amazon Kindle Paperwhite - eBook reade… read…   950 52533 0.0181     0      0
 6 Amazon Kindle Paperwhite - eBook reade… great   947 52533 0.0180     0      0
 7 Amazon Kindle Paperwhite - eBook reade… easy    925 52533 0.0176     0      0
 8 Amazon Kindle Paperwhite - eBook reade… books   778 52533 0.0148     0      0
 9 Amazon Kindle Paperwhite - eBook reade… love    772 52533 0.0147     0      0
10 Amazon Kindle Paperwhite - eBook reade… light   686 52533 0.0131     0      0
# ℹ 8,595 more rows
…
